<?xml version="1.0" encoding="UTF-8" standalone="no"?>
<svg
   xmlns:dc="http://purl.org/dc/elements/1.1/"
   xmlns:cc="http://creativecommons.org/ns#"
   xmlns:rdf="http://www.w3.org/1999/02/22-rdf-syntax-ns#"
   xmlns:svg="http://www.w3.org/2000/svg"
   xmlns="http://www.w3.org/2000/svg"
   xmlns:sodipodi="http://sodipodi.sourceforge.net/DTD/sodipodi-0.dtd"
   xmlns:inkscape="http://www.inkscape.org/namespaces/inkscape"
   width="2285.8562"
   height="1377.9208"
   viewBox="0 0 176.245 106.241"
   version="1.1"
   id="svg12"
   sodipodi:docname="eu.svg"
   inkscape:version="1.0.1 (3bc2e813f5, 2020-09-07, custom)">
  <metadata
     id="metadata18">
    <rdf:RDF>
      <cc:Work
         rdf:about="">
        <dc:format>image/svg+xml</dc:format>
        <dc:type
           rdf:resource="http://purl.org/dc/dcmitype/StillImage" />
        <dc:title></dc:title>
      </cc:Work>
    </rdf:RDF>
  </metadata>
  <defs
     id="defs16" />
  <sodipodi:namedview
     pagecolor="#ffffff"
     bordercolor="#666666"
     borderopacity="1"
     objecttolerance="10"
     gridtolerance="10"
     guidetolerance="10"
     inkscape:pageopacity="0"
     inkscape:pageshadow="2"
     inkscape:window-width="1916"
     inkscape:window-height="1056"
     id="namedview14"
     showgrid="false"
     fit-margin-top="0"
     fit-margin-left="0"
     fit-margin-right="0"
     fit-margin-bottom="0"
     inkscape:zoom="0.1766"
     inkscape:cx="1047.3435"
     inkscape:cy="1425.6786"
     inkscape:window-x="0"
     inkscape:window-y="20"
     inkscape:window-maximized="0"
     inkscape:current-layer="g10" />
  <g
     fill-rule="evenodd"
     clip-rule="evenodd"
     id="g10"
     transform="translate(-8.2555,-43.2575)">
    <path
       fill="#ffffff"
       d="M 0,0 H 192.756 V 192.756 H 0 Z"
       id="path2" />
    <path
       fill="#224b8c"
       stroke="#000000"
       stroke-width="0.497"
       stroke-miterlimit="2.613"
       d="M 184.252,149.25 V 43.506 H 8.504 V 149.25 Z"
       id="path4" />
    <path
       fill="#f2ca30"
       d="m 96.798,56.567 0.968,2.822 h 2.949 l -2.35,1.815 0.854,2.829 -2.421,-1.688 -2.421,1.688 0.854,-2.828 -2.351,-1.816 h 2.95 z m 0,70.587 0.968,2.821 h 2.949 l -2.35,1.816 0.854,2.828 -2.421,-1.687 -2.421,1.687 0.854,-2.828 -2.351,-1.816 h 2.95 z m 35.026,-35.643 0.967,2.822 h 2.949 l -2.349,1.814 0.853,2.83 -2.42,-1.688 -2.422,1.688 0.854,-2.829 -2.35,-1.815 h 2.949 z m -70.237,0 0.968,2.822 h 2.95 l -2.351,1.814 0.854,2.83 -2.421,-1.688 -2.421,1.688 0.854,-2.829 -2.351,-1.815 h 2.95 z"
       id="path6" />
    <path
       fill="#f2ca30"
       d="m 96.798,56.567 0.968,2.822 h 2.949 l -2.35,1.815 0.854,2.829 -2.421,-1.688 -2.421,1.688 0.854,-2.828 -2.351,-1.816 h 2.95 z m -31.779,18.601 0.968,2.822 h 2.949 l -2.351,1.815 0.855,2.829 -2.421,-1.688 -2.421,1.688 0.854,-2.829 -2.351,-1.815 h 2.949 z m 0.9,33.723 0.968,2.822 h 2.949 l -2.35,1.814 0.854,2.828 -2.421,-1.687 -2.421,1.687 0.854,-2.828 -2.351,-1.814 h 2.95 z m 12.079,-47.473 0.968,2.822 h 2.95 l -2.351,1.815 0.854,2.829 -2.421,-1.688 -2.421,1.688 0.854,-2.829 -2.351,-1.815 h 2.949 z m 0,60.51 0.968,2.82 h 2.95 l -2.351,1.816 0.854,2.829 -2.421,-1.688 -2.421,1.688 0.854,-2.829 -2.351,-1.816 h 2.949 z m 50.404,-46.76 -0.968,2.822 h -2.95 l 2.352,1.815 -0.856,2.829 2.422,-1.688 2.422,1.688 -0.855,-2.829 2.351,-1.815 h -2.949 z m 0,33.66 -0.968,2.822 h -2.95 l 2.352,1.815 -0.856,2.828 2.422,-1.688 2.422,1.69 -0.855,-2.83 2.351,-1.815 h -2.949 z m -12.978,-47.41 -0.969,2.822 h -2.949 l 2.349,1.815 -0.853,2.829 2.422,-1.688 2.42,1.688 -0.854,-2.829 2.352,-1.815 h -2.949 z m 0,59.957 -0.969,2.822 h -2.949 l 2.349,1.815 -0.853,2.83 2.422,-1.69 2.42,1.69 -0.854,-2.83 2.352,-1.815 h -2.949 z m -18.626,5.779 0.968,2.821 h 2.949 l -2.35,1.816 0.854,2.828 -2.421,-1.687 -2.421,1.687 0.854,-2.828 -2.351,-1.816 h 2.95 z m 35.026,-35.643 0.967,2.822 h 2.949 l -2.349,1.814 0.853,2.83 -2.42,-1.688 -2.422,1.688 0.854,-2.829 -2.35,-1.815 h 2.949 z m -70.237,0 0.968,2.822 h 2.95 l -2.351,1.814 0.854,2.83 -2.421,-1.688 -2.421,1.688 0.854,-2.829 -2.351,-1.815 h 2.95 z"
       id="path8" />
  </g>
</svg>
