<?xml version="1.0" encoding="UTF-8"?>
<svg xmlns="http://www.w3.org/2000/svg" xmlns:xlink="http://www.w3.org/1999/xlink" width="213.151pt" height="48.742pt" viewBox="0 0 213.151 48.742" version="1.1">
<defs>
<g>
<symbol overflow="visible" id="glyph0-0">
<path style="stroke:none;" d=""/>
</symbol>
<symbol overflow="visible" id="glyph0-1">
<path style="stroke:none;" d="M 4.078125 -2.296875 L 6.859375 -2.296875 C 7 -2.296875 7.1875 -2.296875 7.1875 -2.5 C 7.1875 -2.6875 7 -2.6875 6.859375 -2.6875 L 4.078125 -2.6875 L 4.078125 -5.484375 C 4.078125 -5.625 4.078125 -5.8125 3.875 -5.8125 C 3.671875 -5.8125 3.671875 -5.625 3.671875 -5.484375 L 3.671875 -2.6875 L 0.890625 -2.6875 C 0.75 -2.6875 0.5625 -2.6875 0.5625 -2.5 C 0.5625 -2.296875 0.75 -2.296875 0.890625 -2.296875 L 3.671875 -2.296875 L 3.671875 0.5 C 3.671875 0.640625 3.671875 0.828125 3.875 0.828125 C 4.078125 0.828125 4.078125 0.640625 4.078125 0.5 Z M 4.078125 -2.296875 "/>
</symbol>
</g>
<clipPath id="clip1">
  <path d="M 0 0 L 11 0 L 11 48.742188 L 0 48.742188 Z M 0 0 "/>
</clipPath>
<clipPath id="clip2">
  <path d="M 0 38 L 11 38 L 11 48.742188 L 0 48.742188 Z M 0 38 "/>
</clipPath>
<clipPath id="clip3">
  <path d="M 11 0 L 43 0 L 43 48.742188 L 11 48.742188 Z M 11 0 "/>
</clipPath>
<clipPath id="clip4">
  <path d="M 31 0 L 64 0 L 64 48.742188 L 31 48.742188 Z M 31 0 "/>
</clipPath>
<clipPath id="clip5">
  <path d="M 62 0 L 94 0 L 94 48.742188 L 62 48.742188 Z M 62 0 "/>
</clipPath>
<clipPath id="clip6">
  <path d="M 82 0 L 115 0 L 115 48.742188 L 82 48.742188 Z M 82 0 "/>
</clipPath>
<clipPath id="clip7">
  <path d="M 113 0 L 145 0 L 145 48.742188 L 113 48.742188 Z M 113 0 "/>
</clipPath>
<clipPath id="clip8">
  <path d="M 133 0 L 166 0 L 166 48.742188 L 133 48.742188 Z M 133 0 "/>
</clipPath>
<clipPath id="clip9">
  <path d="M 113 18 L 135 18 L 135 48.742188 L 113 48.742188 Z M 113 18 "/>
</clipPath>
<clipPath id="clip10">
  <path d="M 112 38 L 127 38 L 127 48.742188 L 112 48.742188 Z M 112 38 "/>
</clipPath>
<clipPath id="clip11">
  <path d="M 164 0 L 196 0 L 196 48.742188 L 164 48.742188 Z M 164 0 "/>
</clipPath>
<clipPath id="clip12">
  <path d="M 184 0 L 213.152344 0 L 213.152344 48.742188 L 184 48.742188 Z M 184 0 "/>
</clipPath>
<clipPath id="clip13">
  <path d="M 183 0 L 198 0 L 198 48.742188 L 183 48.742188 Z M 183 0 "/>
</clipPath>
<clipPath id="clip14">
  <path d="M 202 0 L 213.152344 0 L 213.152344 11 L 202 11 Z M 202 0 "/>
</clipPath>
</defs>
<g id="surface1">
<g clip-path="url(#clip1)" clip-rule="nonzero">
<path style="fill:none;stroke-width:0.3985;stroke-linecap:butt;stroke-linejoin:miter;stroke:rgb(0%,0%,59.999084%);stroke-opacity:1;stroke-miterlimit:10;" d="M -0.001625 0.001625 C -0.001625 -0.709312 1.416344 -1.064781 1.416344 -1.771812 C 1.416344 -2.283531 0.724938 -2.728844 -0.001625 -3.189781 C -0.724281 -3.650719 -1.415687 -4.092125 -1.415687 -4.60775 C -1.415687 -5.119469 -0.724281 -5.560875 -0.001625 -6.021812 C 0.724938 -6.486656 1.416344 -6.928062 1.416344 -7.439781 C 1.416344 -7.955406 0.724938 -8.396812 -0.001625 -8.85775 C -0.724281 -9.318687 -1.415687 -9.764 -1.415687 -10.275719 C -1.415687 -10.787437 -0.724281 -11.23275 -0.001625 -11.693687 C 0.724938 -12.154625 1.416344 -12.596031 1.416344 -13.111656 C 1.416344 -13.623375 0.724938 -14.064781 -0.001625 -14.525719 C -0.724281 -14.990562 -1.415687 -15.431969 -1.415687 -15.943687 C -1.415687 -16.459312 -0.724281 -16.900719 -0.001625 -17.361656 C 0.724938 -17.822594 1.416344 -18.267906 1.416344 -18.779625 C 1.416344 -19.291344 0.724938 -19.736656 -0.001625 -20.197594 C -0.724281 -20.658531 -1.415687 -21.099937 -1.415687 -21.615562 C -1.415687 -22.127281 -0.724281 -22.568687 -0.001625 -23.029625 C 0.724938 -23.494469 1.416344 -23.935875 1.416344 -24.447594 C 1.416344 -24.963219 0.724938 -25.404625 -0.001625 -25.865562 C -0.724281 -26.3265 -1.415687 -26.771812 -1.415687 -27.283531 C -1.415687 -27.79525 -0.724281 -28.240562 -0.001625 -28.7015 C 0.724938 -29.162437 1.416344 -29.603844 1.416344 -30.119469 C 1.416344 -30.631187 0.724938 -31.072594 -0.001625 -31.537437 C -0.724281 -31.998375 -1.415687 -32.439781 -1.415687 -32.9515 C -1.415687 -33.467125 -0.724281 -33.908531 -0.001625 -34.369469 C 0.724938 -34.830406 1.416344 -35.275719 1.416344 -35.787437 C 1.416344 -36.299156 0.724938 -36.744469 -0.001625 -37.205406 C -0.724281 -37.666344 -1.415687 -38.10775 -1.415687 -38.623375 C -1.415687 -39.330406 -0.001625 -39.685875 -0.001625 -40.392906 L -0.001625 -42.521812 " transform="matrix(1,0,0,-1,3.111,3.111)"/>
</g>
<path style="fill-rule:nonzero;fill:rgb(0%,0%,0%);fill-opacity:1;stroke-width:0.3985;stroke-linecap:butt;stroke-linejoin:miter;stroke:rgb(0%,0%,0%);stroke-opacity:1;stroke-miterlimit:10;" d="M 1.416344 0.001625 C 1.416344 0.782875 0.783531 1.415688 -0.001625 1.415688 C -0.782875 1.415688 -1.415687 0.782875 -1.415687 0.001625 C -1.415687 -0.783531 -0.782875 -1.416344 -0.001625 -1.416344 C 0.783531 -1.416344 1.416344 -0.783531 1.416344 0.001625 Z M 1.416344 0.001625 " transform="matrix(1,0,0,-1,3.111,3.111)"/>
<path style=" stroke:none;fill-rule:nonzero;fill:rgb(0%,0%,0%);fill-opacity:1;" d="M 4.527344 45.632812 C 4.527344 44.847656 3.894531 44.214844 3.109375 44.214844 C 2.328125 44.214844 1.695312 44.847656 1.695312 45.632812 C 1.695312 46.414062 2.328125 47.046875 3.109375 47.046875 C 3.894531 47.046875 4.527344 46.414062 4.527344 45.632812 Z M 4.527344 45.632812 "/>
<g clip-path="url(#clip2)" clip-rule="nonzero">
<path style="fill:none;stroke-width:0.3985;stroke-linecap:butt;stroke-linejoin:miter;stroke:rgb(0%,0%,0%);stroke-opacity:1;stroke-miterlimit:10;" d="M 1.416344 -42.521812 C 1.416344 -41.736656 0.783531 -41.103844 -0.001625 -41.103844 C -0.782875 -41.103844 -1.415687 -41.736656 -1.415687 -42.521812 C -1.415687 -43.303062 -0.782875 -43.935875 -0.001625 -43.935875 C 0.783531 -43.935875 1.416344 -43.303062 1.416344 -42.521812 Z M 1.416344 -42.521812 " transform="matrix(1,0,0,-1,3.111,3.111)"/>
</g>
<g style="fill:rgb(0%,0%,0%);fill-opacity:1;">
  <use xlink:href="#glyph0-1" x="10.575" y="26.862"/>
</g>
<g clip-path="url(#clip3)" clip-rule="nonzero">
<path style="fill:none;stroke-width:0.3985;stroke-linecap:butt;stroke-linejoin:miter;stroke:rgb(0%,0%,59.999084%);stroke-opacity:1;stroke-miterlimit:10;" d="M -19.841844 0.001625 C -19.541062 -0.642906 -18.107469 -0.365562 -17.810594 -1.006187 C -17.591844 -1.471031 -18.03325 -2.162437 -18.494187 -2.889 C -18.955125 -3.615562 -19.396531 -4.306969 -19.177781 -4.771812 C -18.962937 -5.236656 -18.146531 -5.346031 -17.294969 -5.459312 C -16.443406 -5.568687 -15.627 -5.678062 -15.412156 -6.142906 C -15.193406 -6.60775 -15.634812 -7.303062 -16.09575 -8.025719 C -16.560594 -8.752281 -16.998094 -9.447594 -16.78325 -9.912437 C -16.5645 -10.377281 -15.752 -10.48275 -14.896531 -10.596031 C -14.044969 -10.709312 -13.232469 -10.814781 -13.013719 -11.279625 C -12.798875 -11.744469 -13.236375 -12.439781 -13.701219 -13.166344 C -14.162156 -13.889 -14.599656 -14.584312 -14.384812 -15.049156 C -14.166062 -15.514 -13.353562 -15.619469 -12.502 -15.73275 C -11.646531 -15.846031 -10.834031 -15.9515 -10.615281 -16.416344 C -10.400437 -16.881187 -10.837937 -17.5765 -11.302781 -18.303062 C -11.763719 -19.025719 -12.205125 -19.721031 -11.986375 -20.185875 C -11.771531 -20.650719 -10.955125 -20.760094 -10.103562 -20.869469 C -9.252 -20.98275 -8.435594 -21.092125 -8.22075 -21.556969 C -8.002 -22.021812 -8.443406 -22.713219 -8.904344 -23.439781 C -9.365281 -24.166344 -9.806687 -24.85775 -9.587937 -25.322594 C -9.373094 -25.787437 -8.560594 -25.896812 -7.705125 -26.006187 C -6.853562 -26.119469 -6.037156 -26.228844 -5.822312 -26.693687 C -5.603562 -27.158531 -6.044969 -27.849937 -6.505906 -28.5765 C -6.97075 -29.303062 -7.40825 -29.994469 -7.193406 -30.459312 C -6.974656 -30.924156 -6.162156 -31.033531 -5.306687 -31.146812 C -4.455125 -31.256187 -3.642625 -31.365562 -3.423875 -31.830406 C -3.209031 -32.29525 -3.646531 -32.986656 -4.111375 -33.713219 C -4.572312 -34.439781 -5.009812 -35.131187 -4.794969 -35.596031 C -4.576219 -36.060875 -3.763719 -36.17025 -2.912156 -36.283531 C -2.056687 -36.392906 -1.244187 -36.502281 -1.025437 -36.967125 C -0.810594 -37.431969 -1.248094 -38.127281 -1.712937 -38.849937 C -2.173875 -39.5765 -2.615281 -40.271812 -2.396531 -40.736656 C -2.09575 -41.377281 -0.662156 -41.099937 -0.365281 -41.740562 L 0.00190625 -42.521812 " transform="matrix(1,0,0,-1,37.127,3.111)"/>
</g>
<g clip-path="url(#clip4)" clip-rule="nonzero">
<path style="fill:none;stroke-width:0.3985;stroke-linecap:butt;stroke-linejoin:miter;stroke:rgb(0%,0%,59.999084%);stroke-opacity:1;stroke-miterlimit:10;" d="M 19.84175 0.001625 C 19.544875 -0.642906 20.677688 -1.560875 20.376906 -2.205406 C 20.162063 -2.67025 19.345656 -2.779625 18.494094 -2.889 C 17.642531 -3.002281 16.826125 -3.111656 16.611281 -3.5765 C 16.392531 -4.041344 16.833938 -4.73275 17.294875 -5.459312 C 17.755813 -6.185875 18.197219 -6.877281 17.978469 -7.342125 C 17.763625 -7.806969 16.951125 -7.916344 16.095656 -8.025719 C 15.244094 -8.139 14.431594 -8.248375 14.212844 -8.713219 C 13.998 -9.178062 14.4355 -9.869469 14.896438 -10.596031 C 15.361281 -11.322594 15.798781 -12.014 15.583938 -12.478844 C 15.365188 -12.943687 14.552688 -13.053062 13.701125 -13.166344 C 12.845656 -13.275719 12.033156 -13.385094 11.814406 -13.849937 C 11.599563 -14.314781 12.037063 -15.006187 12.501906 -15.73275 C 12.962844 -16.459312 13.40425 -17.150719 13.1855 -17.615562 C 12.96675 -18.080406 12.15425 -18.189781 11.302688 -18.303062 C 10.447219 -18.412437 9.634719 -18.521812 9.419875 -18.986656 C 9.201125 -19.4515 9.642531 -20.146812 10.103469 -20.869469 C 10.564406 -21.596031 11.005813 -22.287437 10.787063 -22.752281 C 10.572219 -23.221031 9.755813 -23.3265 8.90425 -23.439781 C 8.052688 -23.549156 7.236281 -23.658531 7.021438 -24.123375 C 6.802688 -24.588219 7.244094 -25.283531 7.705031 -26.006187 C 8.165969 -26.73275 8.607375 -27.428062 8.392531 -27.892906 C 8.173781 -28.35775 7.361281 -28.463219 6.505813 -28.5765 C 5.65425 -28.689781 4.84175 -28.79525 4.623 -29.260094 C 4.408156 -29.724937 4.845656 -30.42025 5.306594 -31.146812 C 5.771438 -31.869469 6.208938 -32.564781 5.994094 -33.029625 C 5.775344 -33.494469 4.962844 -33.603844 4.111281 -33.713219 C 3.255813 -33.8265 2.443313 -33.935875 2.224563 -34.400719 C 2.009719 -34.865562 2.447219 -35.556969 2.912063 -36.283531 C 3.373 -37.006187 3.814406 -37.7015 3.595656 -38.166344 C 3.380813 -38.631187 2.564406 -38.740562 1.712844 -38.849937 C 0.857375 -38.963219 0.044875 -39.072594 -0.169969 -39.537437 C -0.47075 -40.178062 0.662063 -41.099937 0.365188 -41.740562 L 0.00190625 -42.521812 " transform="matrix(1,0,0,-1,37.127,3.111)"/>
</g>
<path style="fill-rule:nonzero;fill:rgb(0%,0%,0%);fill-opacity:1;stroke-width:0.3985;stroke-linecap:butt;stroke-linejoin:miter;stroke:rgb(0%,0%,0%);stroke-opacity:1;stroke-miterlimit:10;" d="M -18.423875 0.001625 C -18.423875 0.782875 -19.060594 1.415688 -19.841844 1.415688 C -20.627 1.415688 -21.259812 0.782875 -21.259812 0.001625 C -21.259812 -0.783531 -20.627 -1.416344 -19.841844 -1.416344 C -19.060594 -1.416344 -18.423875 -0.783531 -18.423875 0.001625 Z M -18.423875 0.001625 " transform="matrix(1,0,0,-1,37.127,3.111)"/>
<path style="fill-rule:nonzero;fill:rgb(0%,0%,0%);fill-opacity:1;stroke-width:0.3985;stroke-linecap:butt;stroke-linejoin:miter;stroke:rgb(0%,0%,0%);stroke-opacity:1;stroke-miterlimit:10;" d="M 21.259719 0.001625 C 21.259719 0.782875 20.626906 1.415688 19.84175 1.415688 C 19.0605 1.415688 18.423781 0.782875 18.423781 0.001625 C 18.423781 -0.783531 19.0605 -1.416344 19.84175 -1.416344 C 20.626906 -1.416344 21.259719 -0.783531 21.259719 0.001625 Z M 21.259719 0.001625 " transform="matrix(1,0,0,-1,37.127,3.111)"/>
<path style="fill-rule:nonzero;fill:rgb(0%,0%,0%);fill-opacity:1;stroke-width:0.3985;stroke-linecap:butt;stroke-linejoin:miter;stroke:rgb(0%,0%,0%);stroke-opacity:1;stroke-miterlimit:10;" d="M -1.986375 -43.935875 L -1.986375 -40.947594 L 1.005813 -40.947594 L 1.005813 -43.935875 Z M -1.986375 -43.935875 " transform="matrix(1,0,0,-1,37.127,3.111)"/>
<g style="fill:rgb(0%,0%,0%);fill-opacity:1;">
  <use xlink:href="#glyph0-1" x="58.764" y="26.862"/>
</g>
<g clip-path="url(#clip5)" clip-rule="nonzero">
<path style="fill:none;stroke-width:0.3985;stroke-linecap:butt;stroke-linejoin:miter;stroke:rgb(0%,0%,59.999084%);stroke-opacity:1;stroke-miterlimit:10;" d="M -19.841406 0.001625 C -19.544531 -0.642906 -18.107031 -0.365562 -17.810156 -1.006187 C -17.591406 -1.471031 -18.032813 -2.162437 -18.49375 -2.889 C -18.954688 -3.615562 -19.396094 -4.306969 -19.177344 -4.771812 C -18.9625 -5.236656 -18.15 -5.346031 -17.294531 -5.459312 C -16.442969 -5.568687 -15.630469 -5.678062 -15.411719 -6.142906 C -15.192969 -6.60775 -15.634375 -7.303062 -16.095313 -8.025719 C -16.560156 -8.752281 -16.997656 -9.447594 -16.782813 -9.912437 C -16.564063 -10.377281 -15.751563 -10.48275 -14.896094 -10.596031 C -14.044531 -10.709312 -13.232031 -10.814781 -13.013281 -11.279625 C -12.798438 -11.744469 -13.235938 -12.439781 -13.700781 -13.166344 C -14.161719 -13.889 -14.603125 -14.584312 -14.384375 -15.049156 C -14.165625 -15.514 -13.353125 -15.619469 -12.501563 -15.73275 C -11.646094 -15.846031 -10.833594 -15.9515 -10.61875 -16.416344 C -10.4 -16.881187 -10.841406 -17.5765 -11.302344 -18.303062 C -11.763281 -19.025719 -12.204688 -19.721031 -11.985938 -20.185875 C -11.771094 -20.650719 -10.954688 -20.760094 -10.103125 -20.869469 C -9.251563 -20.98275 -8.435156 -21.092125 -8.220313 -21.556969 C -8.001563 -22.021812 -8.442969 -22.713219 -8.903906 -23.439781 C -9.364844 -24.166344 -9.80625 -24.85775 -9.5875 -25.322594 C -9.372656 -25.787437 -8.560156 -25.896812 -7.704688 -26.006187 C -6.853125 -26.119469 -6.040625 -26.228844 -5.821875 -26.693687 C -5.607031 -27.158531 -6.044531 -27.849937 -6.505469 -28.5765 C -6.970313 -29.303062 -7.407813 -29.994469 -7.192969 -30.459312 C -6.974219 -30.924156 -6.161719 -31.033531 -5.310156 -31.146812 C -4.454688 -31.256187 -3.642188 -31.365562 -3.423438 -31.830406 C -3.208594 -32.29525 -3.646094 -32.986656 -4.110938 -33.713219 C -4.571875 -34.439781 -5.013281 -35.131187 -4.794531 -35.596031 C -4.575781 -36.060875 -3.763281 -36.17025 -2.911719 -36.283531 C -2.05625 -36.392906 -1.24375 -36.502281 -1.028906 -36.967125 C -0.810156 -37.431969 -1.251563 -38.127281 -1.7125 -38.849937 C -2.173438 -39.5765 -2.614844 -40.271812 -2.396094 -40.736656 C -2.095313 -41.377281 -0.661719 -41.099937 -0.364844 -41.740562 L -0.0015625 -42.521812 " transform="matrix(1,0,0,-1,88.15,3.111)"/>
</g>
<g clip-path="url(#clip6)" clip-rule="nonzero">
<path style="fill:none;stroke-width:0.3985;stroke-linecap:butt;stroke-linejoin:miter;stroke:rgb(0%,0%,59.999084%);stroke-opacity:1;stroke-miterlimit:10;" d="M 19.842187 0.001625 C 19.541406 -0.642906 20.678125 -1.560875 20.377344 -2.205406 C 20.1625 -2.67025 19.346094 -2.779625 18.494531 -2.889 C 17.642969 -3.002281 16.826562 -3.111656 16.611719 -3.5765 C 16.392969 -4.041344 16.834375 -4.73275 17.295312 -5.459312 C 17.75625 -6.185875 18.197656 -6.877281 17.978906 -7.342125 C 17.764062 -7.806969 16.951562 -7.916344 16.096094 -8.025719 C 15.244531 -8.139 14.428125 -8.248375 14.213281 -8.713219 C 13.994531 -9.178062 14.435937 -9.869469 14.896875 -10.596031 C 15.361719 -11.322594 15.799219 -12.014 15.584375 -12.478844 C 15.365625 -12.943687 14.553125 -13.053062 13.697656 -13.166344 C 12.846094 -13.275719 12.033594 -13.385094 11.814844 -13.849937 C 11.6 -14.314781 12.0375 -15.006187 12.502344 -15.73275 C 12.963281 -16.459312 13.400781 -17.150719 13.185937 -17.615562 C 12.967187 -18.080406 12.154687 -18.189781 11.303125 -18.303062 C 10.447656 -18.412437 9.635156 -18.521812 9.416406 -18.986656 C 9.201562 -19.4515 9.639062 -20.146812 10.103906 -20.869469 C 10.564844 -21.596031 11.00625 -22.287437 10.7875 -22.752281 C 10.572656 -23.221031 9.75625 -23.3265 8.904687 -23.439781 C 8.053125 -23.549156 7.236719 -23.658531 7.021875 -24.123375 C 6.803125 -24.588219 7.244531 -25.283531 7.705469 -26.006187 C 8.166406 -26.73275 8.607812 -27.428062 8.389062 -27.892906 C 8.174219 -28.35775 7.361719 -28.463219 6.50625 -28.5765 C 5.654687 -28.689781 4.842187 -28.79525 4.623437 -29.260094 C 4.404687 -29.724937 4.846094 -30.42025 5.307031 -31.146812 C 5.771875 -31.869469 6.209375 -32.564781 5.994531 -33.029625 C 5.775781 -33.494469 4.963281 -33.603844 4.107812 -33.713219 C 3.25625 -33.8265 2.44375 -33.935875 2.225 -34.400719 C 2.010156 -34.865562 2.447656 -35.556969 2.9125 -36.283531 C 3.373437 -37.006187 3.814844 -37.7015 3.596094 -38.166344 C 3.377344 -38.631187 2.564844 -38.740562 1.713281 -38.849937 C 0.857812 -38.963219 0.0453125 -39.072594 -0.169531 -39.537437 C -0.470313 -40.178062 0.6625 -41.099937 0.361719 -41.740562 L -0.0015625 -42.521812 " transform="matrix(1,0,0,-1,88.15,3.111)"/>
</g>
<path style="fill:none;stroke-width:0.3985;stroke-linecap:butt;stroke-linejoin:miter;stroke:rgb(0%,0%,59.999084%);stroke-opacity:1;stroke-miterlimit:10;" d="M -0.0015625 0.001625 C -0.407813 -0.580406 0.549219 -1.685875 0.142969 -2.264 C -0.153906 -2.685875 -0.974219 -2.650719 -1.833594 -2.611656 C -2.692969 -2.572594 -3.509375 -2.537437 -3.80625 -2.955406 C -4.099219 -3.377281 -3.786719 -4.135094 -3.458594 -4.931969 C -3.130469 -5.724937 -2.817969 -6.486656 -3.114844 -6.904625 C -3.407813 -7.3265 -4.228125 -7.291344 -5.0875 -7.252281 C -5.946875 -7.213219 -6.767188 -7.178062 -7.064063 -7.596031 C -7.357031 -8.017906 -7.044531 -8.775719 -6.716406 -9.572594 C -6.388281 -10.365562 -6.075781 -11.127281 -6.36875 -11.54525 C -6.665625 -11.967125 -7.485938 -11.931969 -8.345313 -11.892906 C -9.204688 -11.853844 -10.025 -11.818687 -10.317969 -12.236656 C -10.724219 -12.818687 -9.771094 -13.92025 -10.177344 -14.502281 L -11.3375 -16.158531 " transform="matrix(1,0,0,-1,88.15,3.111)"/>
<path style="fill-rule:nonzero;fill:rgb(0%,0%,0%);fill-opacity:1;stroke-width:0.3985;stroke-linecap:butt;stroke-linejoin:miter;stroke:rgb(0%,0%,0%);stroke-opacity:1;stroke-miterlimit:10;" d="M -18.423438 0.001625 C -18.423438 0.782875 -19.060156 1.415688 -19.841406 1.415688 C -20.626563 1.415688 -21.259375 0.782875 -21.259375 0.001625 C -21.259375 -0.783531 -20.626563 -1.416344 -19.841406 -1.416344 C -19.060156 -1.416344 -18.423438 -0.783531 -18.423438 0.001625 Z M -18.423438 0.001625 " transform="matrix(1,0,0,-1,88.15,3.111)"/>
<path style="fill-rule:nonzero;fill:rgb(0%,0%,0%);fill-opacity:1;stroke-width:0.3985;stroke-linecap:butt;stroke-linejoin:miter;stroke:rgb(0%,0%,0%);stroke-opacity:1;stroke-miterlimit:10;" d="M 21.260156 0.001625 C 21.260156 0.782875 20.627344 1.415688 19.842187 1.415688 C 19.060937 1.415688 18.424219 0.782875 18.424219 0.001625 C 18.424219 -0.783531 19.060937 -1.416344 19.842187 -1.416344 C 20.627344 -1.416344 21.260156 -0.783531 21.260156 0.001625 Z M 21.260156 0.001625 " transform="matrix(1,0,0,-1,88.15,3.111)"/>
<path style="fill-rule:nonzero;fill:rgb(0%,0%,0%);fill-opacity:1;stroke-width:0.3985;stroke-linecap:butt;stroke-linejoin:miter;stroke:rgb(0%,0%,0%);stroke-opacity:1;stroke-miterlimit:10;" d="M 1.416406 0.001625 C 1.416406 0.782875 0.783594 1.415688 -0.0015625 1.415688 C -0.782813 1.415688 -1.415625 0.782875 -1.415625 0.001625 C -1.415625 -0.783531 -0.782813 -1.416344 -0.0015625 -1.416344 C 0.783594 -1.416344 1.416406 -0.783531 1.416406 0.001625 Z M 1.416406 0.001625 " transform="matrix(1,0,0,-1,88.15,3.111)"/>
<path style="fill-rule:nonzero;fill:rgb(0%,0%,0%);fill-opacity:1;stroke-width:0.3985;stroke-linecap:butt;stroke-linejoin:miter;stroke:rgb(0%,0%,0%);stroke-opacity:1;stroke-miterlimit:10;" d="M -1.985938 -43.935875 L -1.985938 -40.947594 L 1.00625 -40.947594 L 1.00625 -43.935875 Z M -1.985938 -43.935875 " transform="matrix(1,0,0,-1,88.15,3.111)"/>
<g style="fill:rgb(0%,0%,0%);fill-opacity:1;">
  <use xlink:href="#glyph0-1" x="108.371" y="26.862"/>
</g>
<g clip-path="url(#clip7)" clip-rule="nonzero">
<path style="fill:none;stroke-width:0.3985;stroke-linecap:butt;stroke-linejoin:miter;stroke:rgb(0%,0%,59.999084%);stroke-opacity:1;stroke-miterlimit:10;" d="M -19.843344 0.001625 C -19.542563 -0.642906 -18.108969 -0.365562 -17.808188 -1.006187 C -17.593344 -1.471031 -18.030844 -2.162437 -18.495688 -2.889 C -18.956625 -3.615562 -19.394125 -4.306969 -19.179281 -4.771812 C -18.960531 -5.236656 -18.148031 -5.346031 -17.296469 -5.459312 C -16.441 -5.568687 -15.6285 -5.678062 -15.413656 -6.142906 C -15.194906 -6.60775 -15.636313 -7.303062 -16.09725 -8.025719 C -16.558188 -8.752281 -16.999594 -9.447594 -16.780844 -9.912437 C -16.566 -10.377281 -15.749594 -10.48275 -14.898031 -10.596031 C -14.046469 -10.709312 -13.230063 -10.814781 -13.015219 -11.279625 C -12.796469 -11.744469 -13.237875 -12.439781 -13.698813 -13.166344 C -14.15975 -13.889 -14.601156 -14.584312 -14.382406 -15.049156 C -14.167563 -15.514 -13.355063 -15.619469 -12.499594 -15.73275 C -11.648031 -15.846031 -10.835531 -15.9515 -10.616781 -16.416344 C -10.398031 -16.881187 -10.839438 -17.5765 -11.300375 -18.303062 C -11.765219 -19.025719 -12.202719 -19.721031 -11.987875 -20.185875 C -11.769125 -20.650719 -10.956625 -20.760094 -10.105063 -20.869469 C -9.249594 -20.98275 -8.437094 -21.092125 -8.218344 -21.556969 C -8.0035 -22.021812 -8.441 -22.713219 -8.905844 -23.439781 C -9.366781 -24.166344 -9.808188 -24.85775 -9.589438 -25.322594 C -9.370688 -25.787437 -8.558188 -25.896812 -7.706625 -26.006187 C -6.851156 -26.119469 -6.038656 -26.228844 -5.823813 -26.693687 C -5.605063 -27.158531 -6.046469 -27.849937 -6.507406 -28.5765 C -6.968344 -29.303062 -7.40975 -29.994469 -7.191 -30.459312 C -6.976156 -30.924156 -6.15975 -31.033531 -5.308188 -31.146812 C -4.456625 -31.256187 -3.640219 -31.365562 -3.425375 -31.830406 C -3.206625 -32.29525 -3.648031 -32.986656 -4.108969 -33.713219 C -4.569906 -34.439781 -5.011313 -35.131187 -4.796469 -35.596031 C -4.577719 -36.060875 -3.765219 -36.17025 -2.90975 -36.283531 C -2.058188 -36.392906 -1.245688 -36.502281 -1.026938 -36.967125 C -0.812094 -37.431969 -1.249594 -38.127281 -1.710531 -38.849937 C -2.175375 -39.5765 -2.612875 -40.271812 -2.398031 -40.736656 C -2.09725 -41.377281 -0.663656 -41.099937 -0.362875 -41.740562 L 0.00040625 -42.521812 " transform="matrix(1,0,0,-1,139.316,3.111)"/>
</g>
<g clip-path="url(#clip8)" clip-rule="nonzero">
<path style="fill:none;stroke-width:0.3985;stroke-linecap:butt;stroke-linejoin:miter;stroke:rgb(0%,0%,59.999084%);stroke-opacity:1;stroke-miterlimit:10;" d="M 19.844156 0.001625 C 19.543375 -0.642906 20.676187 -1.560875 20.379312 -2.205406 C 20.160562 -2.67025 19.348062 -2.779625 18.492594 -2.889 C 17.641031 -3.002281 16.828531 -3.111656 16.609781 -3.5765 C 16.394937 -4.041344 16.832437 -4.73275 17.297281 -5.459312 C 17.758219 -6.185875 18.195719 -6.877281 17.980875 -7.342125 C 17.762125 -7.806969 16.949625 -7.916344 16.098062 -8.025719 C 15.242594 -8.139 14.430094 -8.248375 14.211344 -8.713219 C 13.9965 -9.178062 14.434 -9.869469 14.898844 -10.596031 C 15.359781 -11.322594 15.801187 -12.014 15.582437 -12.478844 C 15.367594 -12.943687 14.551187 -13.053062 13.699625 -13.166344 C 12.848062 -13.275719 12.031656 -13.385094 11.816812 -13.849937 C 11.598062 -14.314781 12.039469 -15.006187 12.500406 -15.73275 C 12.961344 -16.459312 13.40275 -17.150719 13.184 -17.615562 C 12.969156 -18.080406 12.156656 -18.189781 11.301187 -18.303062 C 10.449625 -18.412437 9.633219 -18.521812 9.418375 -18.986656 C 9.199625 -19.4515 9.641031 -20.146812 10.101969 -20.869469 C 10.566812 -21.596031 11.004312 -22.287437 10.789469 -22.752281 C 10.570719 -23.221031 9.758219 -23.3265 8.90275 -23.439781 C 8.051187 -23.549156 7.238687 -23.658531 7.019937 -24.123375 C 6.805094 -24.588219 7.242594 -25.283531 7.707437 -26.006187 C 8.168375 -26.73275 8.605875 -27.428062 8.391031 -27.892906 C 8.172281 -28.35775 7.359781 -28.463219 6.508219 -28.5765 C 5.65275 -28.689781 4.84025 -28.79525 4.6215 -29.260094 C 4.406656 -29.724937 4.848062 -30.42025 5.309 -31.146812 C 5.769937 -31.869469 6.211344 -32.564781 5.992594 -33.029625 C 5.77775 -33.494469 4.961344 -33.603844 4.109781 -33.713219 C 3.258219 -33.8265 2.441812 -33.935875 2.226969 -34.400719 C 2.008219 -34.865562 2.449625 -35.556969 2.910562 -36.283531 C 3.3715 -37.006187 3.812906 -37.7015 3.594156 -38.166344 C 3.379312 -38.631187 2.566812 -38.740562 1.711344 -38.849937 C 0.859781 -38.963219 0.0472812 -39.072594 -0.171469 -39.537437 C -0.47225 -40.178062 0.664469 -41.099937 0.363687 -41.740562 L 0.00040625 -42.521812 " transform="matrix(1,0,0,-1,139.316,3.111)"/>
</g>
<g clip-path="url(#clip9)" clip-rule="nonzero">
<path style="fill:none;stroke-width:0.3985;stroke-linecap:butt;stroke-linejoin:miter;stroke:rgb(0%,0%,59.999084%);stroke-opacity:1;stroke-miterlimit:10;" d="M -10.913656 -20.693687 C -11.167563 -21.353844 -9.97225 -22.193687 -10.226156 -22.853844 C -10.40975 -23.334312 -11.214438 -23.498375 -12.058188 -23.67025 C -12.898031 -23.842125 -13.702719 -24.006187 -13.886313 -24.48275 C -14.073813 -24.963219 -13.585531 -25.623375 -13.073813 -26.314781 C -12.562094 -27.006187 -12.073813 -27.666344 -12.257406 -28.146812 C -12.441 -28.627281 -13.245688 -28.791344 -14.089438 -28.963219 C -14.933188 -29.131187 -15.737875 -29.299156 -15.921469 -29.775719 C -16.105063 -30.256187 -15.616781 -30.916344 -15.105063 -31.60775 C -14.593344 -32.299156 -14.108969 -32.959312 -14.292563 -33.439781 C -14.476156 -33.916344 -15.280844 -34.084312 -16.120688 -34.252281 C -16.964438 -34.424156 -17.769125 -34.588219 -17.952719 -35.068687 C -18.136313 -35.549156 -17.651938 -36.209312 -17.140219 -36.900719 C -16.6285 -37.592125 -16.140219 -38.252281 -16.323813 -38.73275 C -16.507406 -39.209312 -17.312094 -39.373375 -18.155844 -39.54525 C -18.999594 -39.717125 -19.804281 -39.881187 -19.987875 -40.361656 C -20.241781 -41.021812 -19.046469 -41.861656 -19.300375 -42.521812 L -19.843344 -43.935875 " transform="matrix(1,0,0,-1,139.316,3.111)"/>
</g>
<path style="fill-rule:nonzero;fill:rgb(0%,0%,0%);fill-opacity:1;stroke-width:0.3985;stroke-linecap:butt;stroke-linejoin:miter;stroke:rgb(0%,0%,0%);stroke-opacity:1;stroke-miterlimit:10;" d="M -18.710531 0.001625 C -18.710531 0.782875 -19.343344 1.415688 -20.124594 1.415688 C -20.90975 1.415688 -21.542563 0.782875 -21.542563 0.001625 C -21.542563 -0.783531 -20.90975 -1.416344 -20.124594 -1.416344 C -19.343344 -1.416344 -18.710531 -0.783531 -18.710531 0.001625 Z M -18.710531 0.001625 " transform="matrix(1,0,0,-1,139.316,3.111)"/>
<path style="fill-rule:nonzero;fill:rgb(0%,0%,0%);fill-opacity:1;stroke-width:0.3985;stroke-linecap:butt;stroke-linejoin:miter;stroke:rgb(0%,0%,0%);stroke-opacity:1;stroke-miterlimit:10;" d="M 21.258219 0.001625 C 21.258219 0.782875 20.625406 1.415688 19.844156 1.415688 C 19.059 1.415688 18.426187 0.782875 18.426187 0.001625 C 18.426187 -0.783531 19.059 -1.416344 19.844156 -1.416344 C 20.625406 -1.416344 21.258219 -0.783531 21.258219 0.001625 Z M 21.258219 0.001625 " transform="matrix(1,0,0,-1,139.316,3.111)"/>
<path style=" stroke:none;fill-rule:nonzero;fill:rgb(0%,0%,0%);fill-opacity:1;" d="M 121.175781 45.632812 C 121.175781 44.847656 120.539062 44.214844 119.757812 44.214844 C 118.972656 44.214844 118.339844 44.847656 118.339844 45.632812 C 118.339844 46.414062 118.972656 47.046875 119.757812 47.046875 C 120.539062 47.046875 121.175781 46.414062 121.175781 45.632812 Z M 121.175781 45.632812 "/>
<g clip-path="url(#clip10)" clip-rule="nonzero">
<path style="fill:none;stroke-width:0.3985;stroke-linecap:butt;stroke-linejoin:miter;stroke:rgb(0%,0%,0%);stroke-opacity:1;stroke-miterlimit:10;" d="M -18.140219 -42.521812 C -18.140219 -41.736656 -18.776938 -41.103844 -19.558188 -41.103844 C -20.343344 -41.103844 -20.976156 -41.736656 -20.976156 -42.521812 C -20.976156 -43.303062 -20.343344 -43.935875 -19.558188 -43.935875 C -18.776938 -43.935875 -18.140219 -43.303062 -18.140219 -42.521812 Z M -18.140219 -42.521812 " transform="matrix(1,0,0,-1,139.316,3.111)"/>
</g>
<path style="fill-rule:nonzero;fill:rgb(0%,0%,0%);fill-opacity:1;stroke-width:0.3985;stroke-linecap:butt;stroke-linejoin:miter;stroke:rgb(0%,0%,0%);stroke-opacity:1;stroke-miterlimit:10;" d="M -1.983969 -43.935875 L -1.983969 -40.947594 L 1.004312 -40.947594 L 1.004312 -43.935875 Z M -1.983969 -43.935875 " transform="matrix(1,0,0,-1,139.316,3.111)"/>
<g style="fill:rgb(0%,0%,0%);fill-opacity:1;">
  <use xlink:href="#glyph0-1" x="160.811" y="26.862"/>
</g>
<g clip-path="url(#clip11)" clip-rule="nonzero">
<path style="fill:none;stroke-width:0.3985;stroke-linecap:butt;stroke-linejoin:miter;stroke:rgb(0%,0%,59.999084%);stroke-opacity:1;stroke-miterlimit:10;" d="M -19.842531 0.001625 C -19.54175 -0.642906 -18.108156 -0.365562 -17.807375 -1.006187 C -17.592531 -1.471031 -18.030031 -2.162437 -18.494875 -2.889 C -18.955813 -3.615562 -19.397219 -4.306969 -19.178469 -4.771812 C -18.963625 -5.236656 -18.147219 -5.346031 -17.295656 -5.459312 C -16.444094 -5.568687 -15.627688 -5.678062 -15.412844 -6.142906 C -15.194094 -6.60775 -15.6355 -7.303062 -16.096438 -8.025719 C -16.557375 -8.752281 -16.998781 -9.447594 -16.780031 -9.912437 C -16.565188 -10.377281 -15.752688 -10.48275 -14.897219 -10.596031 C -14.045656 -10.709312 -13.233156 -10.814781 -13.014406 -11.279625 C -12.795656 -11.744469 -13.237063 -12.439781 -13.698 -13.166344 C -14.162844 -13.889 -14.600344 -14.584312 -14.3855 -15.049156 C -14.16675 -15.514 -13.35425 -15.619469 -12.498781 -15.73275 C -11.647219 -15.846031 -10.834719 -15.9515 -10.615969 -16.416344 C -10.401125 -16.881187 -10.838625 -17.5765 -11.303469 -18.303062 C -11.764406 -19.025719 -12.201906 -19.721031 -11.987063 -20.185875 C -11.768313 -20.650719 -10.955813 -20.760094 -10.10425 -20.869469 C -9.248781 -20.98275 -8.436281 -21.092125 -8.217531 -21.556969 C -8.002688 -22.021812 -8.444094 -22.713219 -8.905031 -23.439781 C -9.365969 -24.166344 -9.807375 -24.85775 -9.588625 -25.322594 C -9.373781 -25.787437 -8.557375 -25.896812 -7.705813 -26.006187 C -6.85425 -26.119469 -6.037844 -26.228844 -5.823 -26.693687 C -5.60425 -27.158531 -6.045656 -27.849937 -6.506594 -28.5765 C -6.967531 -29.303062 -7.408938 -29.994469 -7.190188 -30.459312 C -6.975344 -30.924156 -6.162844 -31.033531 -5.307375 -31.146812 C -4.455813 -31.256187 -3.643313 -31.365562 -3.424563 -31.830406 C -3.205813 -32.29525 -3.647219 -32.986656 -4.108156 -33.713219 C -4.573 -34.439781 -5.0105 -35.131187 -4.795656 -35.596031 C -4.576906 -36.060875 -3.764406 -36.17025 -2.912844 -36.283531 C -2.057375 -36.392906 -1.244875 -36.502281 -1.026125 -36.967125 C -0.811281 -37.431969 -1.248781 -38.127281 -1.713625 -38.849937 C -2.174563 -39.5765 -2.615969 -40.271812 -2.397219 -40.736656 C -2.096438 -41.377281 -0.662844 -41.099937 -0.362063 -41.740562 L 0.00121875 -42.521812 " transform="matrix(1,0,0,-1,190.198,3.111)"/>
</g>
<g clip-path="url(#clip12)" clip-rule="nonzero">
<path style="fill:none;stroke-width:0.3985;stroke-linecap:butt;stroke-linejoin:miter;stroke:rgb(0%,0%,59.999084%);stroke-opacity:1;stroke-miterlimit:10;" d="M 19.841062 0.001625 C 19.544187 -0.642906 20.677 -1.560875 20.376219 -2.205406 C 20.161375 -2.67025 19.348875 -2.779625 18.493406 -2.889 C 17.641844 -3.002281 16.829344 -3.111656 16.610594 -3.5765 C 16.391844 -4.041344 16.83325 -4.73275 17.294187 -5.459312 C 17.759031 -6.185875 18.196531 -6.877281 17.981687 -7.342125 C 17.762937 -7.806969 16.950437 -7.916344 16.094969 -8.025719 C 15.243406 -8.139 14.430906 -8.248375 14.212156 -8.713219 C 13.997312 -9.178062 14.434812 -9.869469 14.899656 -10.596031 C 15.360594 -11.322594 15.798094 -12.014 15.58325 -12.478844 C 15.3645 -12.943687 14.552 -13.053062 13.700437 -13.166344 C 12.844969 -13.275719 12.032469 -13.385094 11.813719 -13.849937 C 11.598875 -14.314781 12.040281 -15.006187 12.501219 -15.73275 C 12.962156 -16.459312 13.403562 -17.150719 13.184812 -17.615562 C 12.969969 -18.080406 12.153562 -18.189781 11.302 -18.303062 C 10.450437 -18.412437 9.634031 -18.521812 9.419187 -18.986656 C 9.200437 -19.4515 9.641844 -20.146812 10.102781 -20.869469 C 10.563719 -21.596031 11.005125 -22.287437 10.786375 -22.752281 C 10.571531 -23.221031 9.759031 -23.3265 8.903562 -23.439781 C 8.052 -23.549156 7.2395 -23.658531 7.02075 -24.123375 C 6.802 -24.588219 7.243406 -25.283531 7.704344 -26.006187 C 8.169187 -26.73275 8.606687 -27.428062 8.391844 -27.892906 C 8.173094 -28.35775 7.360594 -28.463219 6.505125 -28.5765 C 5.653562 -28.689781 4.841062 -28.79525 4.622312 -29.260094 C 4.407469 -29.724937 4.844969 -30.42025 5.309812 -31.146812 C 5.77075 -31.869469 6.212156 -32.564781 5.993406 -33.029625 C 5.774656 -33.494469 4.962156 -33.603844 4.110594 -33.713219 C 3.255125 -33.8265 2.442625 -33.935875 2.227781 -34.400719 C 2.009031 -34.865562 2.450437 -35.556969 2.911375 -36.283531 C 3.372312 -37.006187 3.813719 -37.7015 3.594969 -38.166344 C 3.380125 -38.631187 2.563719 -38.740562 1.712156 -38.849937 C 0.860594 -38.963219 0.0441875 -39.072594 -0.170656 -39.537437 C -0.471438 -40.178062 0.661375 -41.099937 0.3645 -41.740562 L 0.00121875 -42.521812 " transform="matrix(1,0,0,-1,190.198,3.111)"/>
</g>
<g clip-path="url(#clip13)" clip-rule="nonzero">
<path style="fill:none;stroke-width:0.3985;stroke-linecap:butt;stroke-linejoin:miter;stroke:rgb(0%,0%,59.999084%);stroke-opacity:1;stroke-miterlimit:10;" d="M 0.00121875 0.001625 C 0.00121875 -0.709312 1.419187 -1.064781 1.419187 -1.771812 C 1.419187 -2.283531 0.723875 -2.728844 0.00121875 -3.189781 C -0.725344 -3.650719 -1.41675 -4.092125 -1.41675 -4.60775 C -1.41675 -5.119469 -0.725344 -5.560875 0.00121875 -6.021812 C 0.723875 -6.486656 1.419187 -6.928062 1.419187 -7.439781 C 1.419187 -7.955406 0.723875 -8.396812 0.00121875 -8.85775 C -0.725344 -9.318687 -1.41675 -9.764 -1.41675 -10.275719 C -1.41675 -10.787437 -0.725344 -11.23275 0.00121875 -11.693687 C 0.723875 -12.154625 1.419187 -12.596031 1.419187 -13.111656 C 1.419187 -13.623375 0.723875 -14.064781 0.00121875 -14.525719 C -0.725344 -14.990562 -1.41675 -15.431969 -1.41675 -15.943687 C -1.41675 -16.459312 -0.725344 -16.900719 0.00121875 -17.361656 C 0.723875 -17.822594 1.419187 -18.267906 1.419187 -18.779625 C 1.419187 -19.291344 0.723875 -19.736656 0.00121875 -20.197594 C -0.725344 -20.658531 -1.41675 -21.099937 -1.41675 -21.615562 C -1.41675 -22.127281 -0.725344 -22.568687 0.00121875 -23.029625 C 0.723875 -23.494469 1.419187 -23.935875 1.419187 -24.447594 C 1.419187 -24.963219 0.723875 -25.404625 0.00121875 -25.865562 C -0.725344 -26.3265 -1.41675 -26.771812 -1.41675 -27.283531 C -1.41675 -27.79525 -0.725344 -28.240562 0.00121875 -28.7015 C 0.723875 -29.162437 1.419187 -29.603844 1.419187 -30.119469 C 1.419187 -30.631187 0.723875 -31.072594 0.00121875 -31.537437 C -0.725344 -31.998375 -1.41675 -32.439781 -1.41675 -32.9515 C -1.41675 -33.467125 -0.725344 -33.908531 0.00121875 -34.369469 C 0.723875 -34.830406 1.419187 -35.275719 1.419187 -35.787437 C 1.419187 -36.299156 0.723875 -36.744469 0.00121875 -37.205406 C -0.725344 -37.666344 -1.41675 -38.10775 -1.41675 -38.623375 C -1.41675 -39.330406 0.00121875 -39.685875 0.00121875 -40.392906 L 0.00121875 -42.521812 " transform="matrix(1,0,0,-1,190.198,3.111)"/>
</g>
<path style="fill-rule:nonzero;fill:rgb(0%,0%,0%);fill-opacity:1;stroke-width:0.3985;stroke-linecap:butt;stroke-linejoin:miter;stroke:rgb(0%,0%,0%);stroke-opacity:1;stroke-miterlimit:10;" d="M -18.424563 0.001625 C -18.424563 0.782875 -19.061281 1.415688 -19.842531 1.415688 C -20.623781 1.415688 -21.2605 0.782875 -21.2605 0.001625 C -21.2605 -0.783531 -20.623781 -1.416344 -19.842531 -1.416344 C -19.061281 -1.416344 -18.424563 -0.783531 -18.424563 0.001625 Z M -18.424563 0.001625 " transform="matrix(1,0,0,-1,190.198,3.111)"/>
<path style=" stroke:none;fill-rule:nonzero;fill:rgb(0%,0%,0%);fill-opacity:1;" d="M 211.457031 3.109375 C 211.457031 2.328125 210.824219 1.695312 210.039062 1.695312 C 209.257812 1.695312 208.625 2.328125 208.625 3.109375 C 208.625 3.894531 209.257812 4.527344 210.039062 4.527344 C 210.824219 4.527344 211.457031 3.894531 211.457031 3.109375 Z M 211.457031 3.109375 "/>
<g clip-path="url(#clip14)" clip-rule="nonzero">
<path style="fill:none;stroke-width:0.3985;stroke-linecap:butt;stroke-linejoin:miter;stroke:rgb(0%,0%,0%);stroke-opacity:1;stroke-miterlimit:10;" d="M 21.259031 0.001625 C 21.259031 0.782875 20.626219 1.415688 19.841062 1.415688 C 19.059812 1.415688 18.427 0.782875 18.427 0.001625 C 18.427 -0.783531 19.059812 -1.416344 19.841062 -1.416344 C 20.626219 -1.416344 21.259031 -0.783531 21.259031 0.001625 Z M 21.259031 0.001625 " transform="matrix(1,0,0,-1,190.198,3.111)"/>
</g>
<path style="fill-rule:nonzero;fill:rgb(0%,0%,0%);fill-opacity:1;stroke-width:0.3985;stroke-linecap:butt;stroke-linejoin:miter;stroke:rgb(0%,0%,0%);stroke-opacity:1;stroke-miterlimit:10;" d="M 1.419187 0.001625 C 1.419187 0.782875 0.782469 1.415688 0.00121875 1.415688 C -0.783938 1.415688 -1.41675 0.782875 -1.41675 0.001625 C -1.41675 -0.783531 -0.783938 -1.416344 0.00121875 -1.416344 C 0.782469 -1.416344 1.419187 -0.783531 1.419187 0.001625 Z M 1.419187 0.001625 " transform="matrix(1,0,0,-1,190.198,3.111)"/>
<path style="fill-rule:nonzero;fill:rgb(0%,0%,0%);fill-opacity:1;stroke-width:0.3985;stroke-linecap:butt;stroke-linejoin:miter;stroke:rgb(0%,0%,0%);stroke-opacity:1;stroke-miterlimit:10;" d="M -1.983156 -43.935875 L -1.983156 -40.947594 L 1.005125 -40.947594 L 1.005125 -43.935875 Z M -1.983156 -43.935875 " transform="matrix(1,0,0,-1,190.198,3.111)"/>
</g>
</svg>
